<svg 
 xmlns="http://www.w3.org/2000/svg"
 xmlns:xlink="http://www.w3.org/1999/xlink"
 width="15px" height="11px">
<path fill-rule="evenodd"  fill="rgb(255, 255, 255)"
 d="M9.703,5.500 L15.000,0.666 L15.000,10.333 L9.703,5.500 ZM0.663,-0.000 L14.395,-0.000 L7.529,6.266 L0.663,-0.000 ZM-0.000,10.333 L-0.000,0.666 L5.296,5.500 L-0.000,10.333 ZM7.529,7.484 L9.036,6.109 L14.395,11.000 L0.663,11.000 L6.022,6.109 L7.529,7.484 Z"/>
</svg>