<svg 
 xmlns="http://www.w3.org/2000/svg"
 xmlns:xlink="http://www.w3.org/1999/xlink"
 width="13px" height="21px">
<path fill-rule="evenodd"  fill="rgb(255, 255, 255)"
 d="M12.885,11.025 L9.552,7.327 L12.885,3.652 C13.003,3.532 13.030,3.346 12.952,3.196 C12.883,3.036 12.719,2.942 12.549,2.967 L1.790,2.967 L1.790,2.648 C2.301,2.433 2.642,1.933 2.662,1.370 C2.662,0.613 2.061,-0.000 1.320,-0.000 C0.591,-0.000 0.000,0.603 -0.000,1.347 C-0.000,1.354 -0.000,1.362 0.000,1.370 C0.029,1.937 0.378,2.436 0.895,2.648 L0.895,20.543 C0.895,20.796 1.095,21.000 1.342,21.000 C1.589,21.000 1.790,20.796 1.790,20.543 L1.790,11.869 L12.549,11.869 C12.731,11.848 12.887,11.725 12.952,11.550 C13.035,11.377 13.009,11.170 12.885,11.025 ZM1.320,1.826 C1.073,1.826 0.873,1.622 0.873,1.370 C0.873,1.117 1.073,0.913 1.320,0.913 C1.567,0.913 1.767,1.117 1.767,1.370 C1.767,1.622 1.567,1.826 1.320,1.826 ZM1.790,10.956 L1.790,3.880 L11.543,3.880 L8.635,7.053 C8.475,7.235 8.475,7.510 8.635,7.692 L11.543,10.956 L1.790,10.956 L1.790,10.956 Z"/>
</svg>