<svg 
 xmlns="http://www.w3.org/2000/svg"
 xmlns:xlink="http://www.w3.org/1999/xlink"
 width="22px" height="21px">
<path fill-rule="evenodd"  opacity="0.8" fill="rgb(0, 0, 0)"
 d="M21.692,19.467 C21.286,19.884 20.873,20.296 20.456,20.703 C20.046,21.103 19.932,21.100 19.511,20.684 C19.013,20.193 18.521,19.696 18.025,19.203 C17.900,19.079 17.767,18.963 17.593,18.802 C17.389,19.255 17.238,19.658 17.028,20.029 C16.927,20.206 16.716,20.322 16.554,20.465 C16.413,20.301 16.203,20.158 16.143,19.968 C15.911,19.222 15.693,18.468 15.535,17.703 C15.441,17.244 15.440,16.994 15.000,17.000 C13.135,17.024 10.865,17.000 9.000,17.000 C8.366,17.000 8.000,17.053 8.000,17.000 C8.000,16.650 8.008,15.349 8.000,15.000 C7.999,14.970 8.048,15.103 8.000,15.000 C7.841,15.000 8.194,15.000 8.000,15.000 C6.218,15.001 3.781,15.008 2.000,15.000 C0.928,14.995 0.881,14.632 1.030,13.572 C1.098,13.088 1.732,13.089 1.814,13.581 C1.875,14.217 2.169,14.029 2.909,14.002 C2.939,14.000 2.969,14.000 3.000,14.000 C4.732,13.999 6.268,14.003 8.000,14.000 C8.147,14.000 7.812,14.009 8.000,14.000 C8.000,12.007 8.000,9.766 8.000,10.000 C8.000,9.331 8.347,9.000 9.000,9.000 C10.848,9.000 13.152,8.999 15.000,9.000 C15.198,9.000 14.757,9.000 15.000,9.000 C15.000,7.010 15.000,4.985 15.000,3.000 C10.504,3.000 6.564,3.000 2.000,3.000 C2.000,1.361 2.003,6.376 2.000,10.000 C2.000,10.116 1.869,10.200 1.814,10.281 C1.511,10.730 1.340,10.779 1.033,10.287 C0.973,10.190 1.014,10.028 1.014,9.895 C1.013,7.080 1.011,4.265 1.012,1.451 C1.013,0.486 1.491,0.001 2.448,0.001 C6.543,-0.001 10.639,-0.000 14.735,0.003 C15.816,0.004 15.998,-0.087 16.000,1.000 C16.005,3.448 16.024,6.552 16.000,9.000 C16.013,9.067 16.548,9.020 17.000,9.000 C17.731,8.968 18.267,8.997 19.000,9.000 C19.683,9.003 20.000,9.298 20.000,10.000 C20.000,11.365 20.028,12.635 20.000,14.000 C19.992,14.398 19.895,14.906 20.274,14.958 C20.455,14.983 20.646,15.014 20.804,15.096 C21.035,15.217 21.242,15.387 21.459,15.536 C21.277,15.723 21.123,15.955 20.907,16.084 C20.583,16.279 20.217,16.402 19.731,16.616 C20.431,17.295 21.067,17.903 21.692,18.523 C22.104,18.931 22.101,19.048 21.692,19.467 ZM18.927,10.517 C18.925,10.430 18.651,10.276 18.503,10.275 C15.591,10.261 12.912,10.013 10.000,10.000 C9.631,9.998 8.996,10.625 9.000,11.000 C9.018,12.698 9.022,14.302 9.000,16.000 C8.995,16.411 9.625,16.003 10.000,16.000 C11.614,15.986 13.386,16.000 15.000,16.000 C15.146,16.000 14.936,16.305 15.138,16.290 C14.968,15.640 14.806,15.034 14.651,14.426 C14.445,13.615 14.617,13.441 15.428,13.652 C16.569,13.949 17.707,14.258 18.946,14.589 C18.946,13.172 18.954,11.844 18.927,10.517 Z"/>
</svg>