<svg 
 xmlns="http://www.w3.org/2000/svg"
 xmlns:xlink="http://www.w3.org/1999/xlink"
 width="19px" height="14px">
<path fill-rule="evenodd"  opacity="0.8" fill="rgb(0, 0, 0)"
 d="M19.000,13.124 L19.000,0.876 C19.000,0.650 18.914,0.443 18.775,0.288 C18.773,0.285 18.771,0.283 18.769,0.280 C18.611,0.108 18.388,-0.000 18.140,-0.000 L0.860,-0.000 C0.612,-0.000 0.389,0.108 0.232,0.279 C0.230,0.282 0.227,0.285 0.225,0.288 C0.085,0.443 -0.000,0.650 -0.000,0.876 L-0.000,13.124 C-0.000,13.350 0.086,13.557 0.225,13.712 C0.227,13.715 0.229,13.717 0.231,13.719 C0.388,13.891 0.611,14.000 0.860,14.000 L18.140,14.000 C18.388,14.000 18.611,13.892 18.769,13.720 C18.771,13.717 18.773,13.715 18.775,13.712 C18.914,13.557 19.000,13.350 19.000,13.124 ZM2.667,11.165 C2.496,10.998 2.223,11.003 2.059,11.178 L0.860,12.473 L0.860,1.527 L6.015,7.000 L4.622,8.478 C4.458,8.653 4.463,8.930 4.635,9.098 C4.718,9.179 4.825,9.220 4.932,9.220 C5.045,9.220 5.158,9.175 5.242,9.085 L6.611,7.632 L8.594,9.739 C8.835,9.994 9.156,10.134 9.500,10.134 C9.844,10.134 10.165,9.993 10.405,9.739 L12.389,7.632 L17.561,13.124 L1.439,13.124 L2.679,11.785 C2.844,11.610 2.838,11.333 2.667,11.165 ZM9.785,9.132 C9.709,9.213 9.607,9.258 9.500,9.258 C9.393,9.258 9.291,9.213 9.215,9.132 L1.439,0.876 L17.561,0.876 L9.785,9.132 ZM12.985,7.000 L18.140,1.527 L18.140,12.473 L12.985,7.000 Z"/>
</svg>