<svg 
 xmlns="http://www.w3.org/2000/svg"
 xmlns:xlink="http://www.w3.org/1999/xlink"
 width="19px" height="18px">
<path fill-rule="evenodd"  fill="rgb(255, 255, 255)"
 d="M18.989,17.232 C18.989,17.803 18.792,17.998 18.200,17.998 C12.395,18.000 6.591,18.000 0.786,17.998 C0.197,17.998 0.002,17.803 0.001,17.228 C-0.001,14.909 -0.001,12.591 0.001,10.272 C0.002,9.683 0.206,9.487 0.816,9.485 C2.384,9.482 3.952,9.483 5.519,9.481 C6.205,9.481 6.359,9.618 6.420,10.283 C6.558,11.786 7.726,12.937 9.232,13.053 C10.779,13.173 12.121,12.229 12.495,10.747 C12.552,10.523 12.556,10.286 12.592,10.056 C12.651,9.676 12.901,9.463 13.241,9.492 C13.571,9.520 13.813,9.783 13.799,10.151 C13.750,11.459 13.212,12.543 12.150,13.354 C9.723,15.206 6.194,14.074 5.349,11.181 C5.303,11.024 5.264,10.864 5.213,10.675 C3.878,10.675 2.582,10.675 1.249,10.675 C1.249,12.711 1.249,14.732 1.249,16.787 C6.746,16.787 12.230,16.787 17.746,16.787 C17.746,14.754 17.746,12.732 17.746,10.659 C17.556,10.659 17.391,10.659 17.226,10.659 C16.449,10.658 15.673,10.664 14.896,10.653 C14.526,10.648 14.315,10.441 14.307,10.085 C14.300,9.751 14.494,9.506 14.833,9.500 C16.033,9.478 17.234,9.482 18.434,9.498 C18.755,9.502 18.935,9.722 18.983,10.029 C18.996,10.110 18.990,10.194 18.990,10.276 C18.990,12.595 18.992,14.913 18.989,17.232 ZM13.636,7.134 C12.461,8.305 11.287,9.474 10.111,10.643 C9.633,11.118 9.378,11.119 8.901,10.645 C7.725,9.477 6.551,8.307 5.377,7.137 C5.299,7.060 5.216,6.985 5.153,6.897 C4.947,6.613 4.954,6.323 5.212,6.085 C5.458,5.859 5.749,5.866 5.991,6.096 C6.517,6.596 7.028,7.112 7.544,7.623 C8.185,8.259 8.824,8.898 9.514,9.585 C10.554,8.544 11.559,7.537 12.565,6.532 C12.720,6.377 12.871,6.215 13.040,6.077 C13.284,5.879 13.555,5.873 13.790,6.082 C14.038,6.303 14.057,6.582 13.882,6.860 C13.818,6.963 13.723,7.048 13.636,7.134 ZM9.510,8.583 C9.150,8.588 8.920,8.312 8.919,7.852 C8.915,6.664 8.918,5.476 8.918,4.288 C8.918,3.100 8.915,1.912 8.919,0.724 C8.920,0.255 9.135,-0.010 9.500,-0.014 C9.866,-0.017 10.089,0.249 10.090,0.714 C10.093,3.090 10.094,5.466 10.093,7.842 C10.093,8.303 9.869,8.579 9.510,8.583 Z"/>
</svg>