<svg xmlns="http://www.w3.org/2000/svg" id="Capa_1" style="" viewBox="0 0 512 512" x="0px" y="0px" xmlns:xml="http://www.w3.org/XML/1998/namespace" xml:space="preserve" version="1.1">
<g>
	<g>
		<path d="M 506.143 477.858 L 371.895 343.61 C 401.931 307.28 420 260.711 420 210 C 420 94.206 325.794 0 210 0 S 0 94.206 0 210 s 94.206 210 210 210 c 50.711 0 97.28 -18.069 133.611 -48.105 l 134.247 134.247 c 7.81 7.81 20.474 7.811 28.285 0 C 513.952 498.332 513.953 485.669 506.143 477.858 Z M 210 380 c -93.738 0 -170 -76.262 -170 -170 S 116.262 40 210 40 s 170 76.262 170 170 S 303.738 380 210 380 Z" />
	</g>
</g>
<g>
	<g>
		<circle cx="210" cy="210" r="25" />
	</g>
</g>
<g>
	<g>
		<circle cx="135" cy="210" r="25" />
	</g>
</g>
<g>
	<g>
		<circle cx="285" cy="210" r="25" />
	</g>
</g>

</svg>